{
  "content": [
    {
      "jgid": "56",
      "jgmc": "陕西正衡房地产土地评估有限责任公司",
      "jgszd": "西安市",
      "jgzzList": [
        {
          "jdlb": "房地产评估",
          "zzdj": "一级",
          "yxrq": 1624204800000,
          "spjg": "陕西省住房和城乡建设厅",
          "zzsm": "房地产价格评估一级",
          "zzzh": "610131100002960",
          "zzid": "57",
          "jgid": "56",
          "jdlbId": "10",
          "zzdjId": "5",
          "cylyId": "1",
          "dataflag": 2,
          "alert": false
        },
        {
          "jdlb": "土地评估",
          "zzdj": "A",
          "yxrq": 1624982400000,
          "spjg": "中国土地估价师协会",
          "zzsm": "全国范围内从事土地评估业务",
          "zzzh": "610131100002960",
          "zzid": "59",
          "jgid": "56",
          "jdlbId": "13",
          "zzdjId": "7",
          "cylyId": "1",
          "dataflag": 1,
          "alert": false
        },
        {
          "jdlb": "测绘",
          "zzdj": "乙级",
          "yxrq": 1577721600000,
          "spjg": "陕西省测绘地理信息局",
          "zzsm": "摄影测量与遥感、工程测量、不动产测绘、地理信息系统工程、地图编制",
          "zzzh": "乙测资字6112369",
          "zzid": "59ab6195-5e44-4cf8-886d-92a7b9ca7e67",
          "jgid": "56",
          "jdlbId": "1",
          "zzdjId": "2",
          "cylyId": "1",
          "dataflag": 8,
          "alert": true
        }
      ],
      "jdryList": []
    },
    {
      "jgid": "502",
      "jgmc": "陕西国信勘测规划工程有限公司",
      "jgszd": "汉中市",
      "jgzzList": [
        {
          "jdlb": "测绘",
          "zzdj": "丙级",
          "cyly": "汉中市",
          "yxrq": 1577721600000,
          "spjg": "陕西省测绘地理信息局",
          "zzsm": "丙级",
          "zzzh": "丙测资字6120408",
          "zzid": "918",
          "jgid": "502",
          "jdlbId": "1",
          "zzdjId": "3",
          "cylyId": "610700",
          "dataflag": 8,
          "alert": true
        }
      ],
      "jdryList": []
    },
    {
      "jgid": "488",
      "jgmc": "西安通益房地产评估测绘咨询有限公司",
      "jgszd": "西安市",
      "jgzzList": [
        {
          "jdlb": "测绘",
          "zzdj": "乙级",
          "yxrq": 1577721600000,
          "spjg": "陕西省测绘地理信息局",
          "zzsm": "乙级测绘资质，可以从事地理信息工程；地理信息数据采集、地理信息软件开发；测绘航空摄影；无人飞行器航测；摄影测量与遥感；摄影测量与遥感外业、摄影测量与遥感内业；工程测量；控制测量、地形测量、规划测量、建筑工程测量、变形形变与精密测量、市政工程测量、水利工程测量、线路与桥隧测量、地下管线测量、矿山测量；不动产测绘；地籍测绘、房产测绘、行政区域界限测绘。。。",
          "zzzh": "乙测资字6112530",
          "zzid": "3fa4f2fe-0ee5-44ea-a94c-a09793c548a2",
          "jgid": "488",
          "jdlbId": "1",
          "zzdjId": "2",
          "cylyId": "1",
          "dataflag": 8,
          "alert": true
        },
        {
          "jdlb": "房地产评估",
          "zzdj": "一级",
          "yxrq": 1612972800000,
          "spjg": "陕西省住房和城乡建设厅",
          "zzsm": "在全国范围内从事房地产评估业务",
          "zzzh": "陕房地评（2018）005号",
          "zzid": "893",
          "jgid": "488",
          "jdlbId": "10",
          "zzdjId": "5",
          "cylyId": "1",
          "dataflag": 1,
          "alert": false
        }
      ],
      "jdryList": []
    },
    {
      "jgid": "435",
      "jgmc": "陕西建华工程咨询有限公司",
      "jgszd": "汉中市",
      "jgzzList": [
        {
          "jdlb": "工程造价",
          "zzdj": "甲级",
          "yxrq": 1580313600000,
          "spjg": "中华人民共和国住房和城乡建设部",
          "zzsm": "",
          "zzzh": "甲171161001973",
          "zzid": "761",
          "jgid": "435",
          "jdlbId": "23",
          "zzdjId": "11",
          "cylyId": "1",
          "dataflag": 3,
          "alert": true
        }
      ],
      "jdryList": []
    },
    {
      "jgid": "423",
      "jgmc": "宝鸡金诚不动产评估咨询有限公司",
      "jgszd": "宝鸡市",
      "jgzzList": [
        {
          "jdlb": "土地评估",
          "zzdj": "A",
          "yxrq": 1624982400000,
          "spjg": "中国土地估计师与土地登记代理人协会",
          "zzsm": "全国范围内土地评估与咨询",
          "zzzh": "A201661014",
          "zzid": "717",
          "jgid": "423",
          "jdlbId": "13",
          "zzdjId": "7",
          "cylyId": "1",
          "dataflag": 1,
          "alert": false
        },
        {
          "jdlb": "测绘",
          "zzdj": "丙级",
          "cyly": "宝鸡市",
          "yxrq": 1577721600000,
          "spjg": "陕西省测绘地理信息局",
          "zzsm": "工程测量、不动产测量",
          "zzzh": "丙测资字6122491",
          "zzid": "718",
          "jgid": "423",
          "jdlbId": "1",
          "zzdjId": "3",
          "cylyId": "610300",
          "dataflag": 8,
          "alert": true
        }
      ],
      "jdryList": []
    }
  ],
  "pageable": {
    "sort": {
      "sorted": true,
      "unsorted": false,
      "empty": false
    },
    "offset": "20",
    "pageSize": 5,
    "pageNumber": 4,
    "paged": true,
    "unpaged": false
  },
  "last": false,
  "totalElements": "481",
  "totalPages": 97,
  "number": 4,
  "size": 5,
  "sort": {
    "sorted": true,
    "unsorted": false,
    "empty": false
  },
  "first": false,
  "numberOfElements": 5,
  "empty": false
}
